{
  "extends": "./tslint.json",
  "rules": {
    "ordered-imports": true,
    "no-unused-variable": true,
    "ban-ts-ignore": true,
    "no-empty-interface": true,
    "no-debugger": true,
    "no-console": true
  },

  "defaultSeverity": "error"
}
